{
	"pager": {
		"total_entries": 3264095,
		"total_pages": 272008,
		"per_page": 12,
		"offset": 0,
		"previous_page": null,
		"current_page": 1,
		"next_page": 2
	},
	"videos": [{
		"id": 5514616,
		"legacy_id": 5514616,
		"_type": "Video",
		"kind": "FullEpisode",
		"adult": false,
		"category": "Entretenimento",
		"channel_id": 196,
		"collaborative_upload_id": null,
		"collaborative_upload_user": null,
		"created_at": "2016-12-14T21:16:28-02:00",
		"created_by": "tvg_bernardo.duarte",
		"cut_format": null,
		"description": "Em breve, num cinema perto de você!",
		"duration": 40683,
		"exhibited_at": "2030-07-19T22:00:00-03:00",
		"extended_metadata": {
			"format": ["variedades"],
			"season": 1,
			"episode": 21,
			"genre_ids": ["5390a9d19214472622001bb9"],
			"content_rating": "12",
			"content_rating_criteria": ["conteúdo sexual", "linguagem imprópria", "violência"]
		},
		"hd_available": true,
		"hits": 728,
		"hits_data": {
			"last_day": 1,
			"last_hour": 1,
			"last_updated_at": 1510599604,
			"last_week": 42
		},
		"favorites": 1,
		"notes": "",
		"program_id": 9908,
		"published_at": "2017-01-19T09:09:26-02:00",
		"queryable": true,
		"recommendation_publisher": "webmedia-globoplay-intermediate",
		"scheduled_publication_in": null,
		"scheduled_unpublication_in": null,
		"status": "published",
		"subscriber_only": false,
		"tags": ["Rede Globo"],
		"title": "Star Wars (Nova versão)",
		"unpublished_at": "2017-01-19T09:09:00-02:00",
		"updated_at": "2017-11-07T15:58:27-02:00",
		"updated_by": "glb_thiago.luiz",
		"url_for_consumption": "https://globoplay.globo.com/v/5514616/",
		"videos_ids": [],
		"countries": []
	}, {
		"id": 5514613,
		"legacy_id": 5514613,
		"_type": "Video",
		"kind": "FullEpisode",
		"adult": false,
		"category": "Entretenimento",
		"channel_id": 196,
		"collaborative_upload_id": null,
		"collaborative_upload_user": null,
		"created_at": "2016-12-14T21:15:11-02:00",
		"created_by": "tvg_bernardo.duarte",
		"cut_format": null,
		"description": "Compre já o seu box!",
		"duration": 153216,
		"exhibited_at": "2030-07-12T22:00:00-03:00",
		"extended_metadata": {
			"format": ["variedades"],
			"season": 1,
			"episode": 20,
			"genre_ids": ["5390a9d19214472622001bb9"],
			"content_rating": "12",
			"content_rating_criteria": ["conteúdo sexual", "linguagem imprópria", "violência"]
		},
		"hd_available": true,
		"hits": 338,
		"hits_data": {
			"last_day": 5,
			"last_hour": 1,
			"last_updated_at": 1510347602,
			"last_week": 5
		},
		"favorites": 2,
		"notes": "",
		"program_id": 9908,
		"published_at": "2016-12-14T22:37:04-02:00",
		"queryable": true,
		"recommendation_publisher": "webmedia-globoplay-intermediate",
		"scheduled_publication_in": null,
		"scheduled_unpublication_in": null,
		"status": "published",
		"subscriber_only": false,
		"tags": ["Rede Globo"],
		"title": "Ouça os maiores sucessos de Chico Buarque de Orlando",
		"unpublished_at": "2016-12-14T21:16:25-02:00",
		"updated_at": "2017-11-11T15:55:46-02:00",
		"updated_by": "tvg_amanda.impellizieri",
		"url_for_consumption": "https://globoplay.globo.com/v/5514613/",
		"videos_ids": [],
		"countries": []
	}, {
		"id": 5514610,
		"legacy_id": 5514610,
		"_type": "Video",
		"kind": "FullEpisode",
		"adult": false,
		"category": "Entretenimento",
		"channel_id": 196,
		"collaborative_upload_id": null,
		"collaborative_upload_user": null,
		"created_at": "2016-12-14T21:13:42-02:00",
		"created_by": "tvg_bernardo.duarte",
		"cut_format": null,
		"description": "Em breve nos melhores cinemas",
		"duration": 89978,
		"exhibited_at": "2030-07-05T22:00:00-03:00",
		"extended_metadata": {
			"format": ["variedades"],
			"season": 1,
			"episode": 19,
			"genre_ids": ["5390a9d19214472622001bb9"],
			"content_rating": "12",
			"content_rating_criteria": ["conteúdo sexual", "linguagem imprópria", "violência"]
		},
		"hd_available": true,
		"hits": 255,
		"hits_data": {
			"last_day": 1,
			"last_hour": 1,
			"last_updated_at": 1510337400,
			"last_week": 3
		},
		"favorites": 0,
		"notes": "",
		"program_id": 9908,
		"published_at": "2016-12-14T22:36:35-02:00",
		"queryable": true,
		"recommendation_publisher": "webmedia-globoplay-intermediate",
		"scheduled_publication_in": null,
		"scheduled_unpublication_in": null,
		"status": "published",
		"subscriber_only": false,
		"tags": ["Rede Globo"],
		"title": "Esse quarteto recebeu poderes especiais...",
		"unpublished_at": "2016-12-14T21:14:39-02:00",
		"updated_at": "2017-11-07T15:58:27-02:00",
		"updated_by": "tvg_amanda.impellizieri",
		"url_for_consumption": "https://globoplay.globo.com/v/5514610/",
		"videos_ids": [],
		"countries": []
	}, {
		"id": 5514603,
		"legacy_id": 5514603,
		"_type": "Video",
		"kind": "FullEpisode",
		"adult": false,
		"category": "Entretenimento",
		"channel_id": 196,
		"collaborative_upload_id": null,
		"collaborative_upload_user": null,
		"created_at": "2016-12-14T21:12:16-02:00",
		"created_by": "tvg_bernardo.duarte",
		"cut_format": null,
		"description": "Ilumine a esperança de um corrupto! Ligue agora",
		"duration": 46806,
		"exhibited_at": "2030-06-28T22:00:00-03:00",
		"extended_metadata": {
			"format": ["variedades"],
			"season": 1,
			"episode": 18,
			"genre_ids": ["5390a9d19214472622001bb9"],
			"content_rating": "12",
			"content_rating_criteria": ["conteúdo sexual", "linguagem imprópria", "violência"]
		},
		"hd_available": true,
		"hits": 271,
		"hits_data": {
			"last_day": 4,
			"last_hour": 1,
			"last_updated_at": 1510458000,
			"last_week": 10
		},
		"favorites": 2,
		"notes": "",
		"program_id": 9908,
		"published_at": "2016-12-14T22:36:10-02:00",
		"queryable": true,
		"recommendation_publisher": "webmedia-globoplay-intermediate",
		"scheduled_publication_in": null,
		"scheduled_unpublication_in": null,
		"status": "published",
		"subscriber_only": false,
		"tags": ["Rede Globo"],
		"title": "Participe da campanha Fiança Esperança",
		"unpublished_at": "2016-12-14T21:13:03-02:00",
		"updated_at": "2017-11-07T15:58:28-02:00",
		"updated_by": "tvg_amanda.impellizieri",
		"url_for_consumption": "https://globoplay.globo.com/v/5514603/",
		"videos_ids": [],
		"countries": ["BRA"]
	}, {
		"id": 5514599,
		"legacy_id": 5514599,
		"_type": "Video",
		"kind": "FullEpisode",
		"adult": false,
		"category": "Entretenimento",
		"channel_id": 196,
		"collaborative_upload_id": null,
		"collaborative_upload_user": null,
		"created_at": "2016-12-14T21:11:08-02:00",
		"created_by": "tvg_bernardo.duarte",
		"cut_format": null,
		"description": "Confira o clipe desse cantor que vai dar o que falar",
		"duration": 156015,
		"exhibited_at": "2030-06-21T22:00:00-03:00",
		"extended_metadata": {
			"format": ["variedades"],
			"season": 1,
			"episode": 17,
			"genre_ids": ["5390a9d19214472622001bb9"],
			"content_rating": "12",
			"content_rating_criteria": ["conteúdo sexual", "linguagem imprópria", "violência"]
		},
		"hd_available": true,
		"hits": 278,
		"hits_data": {
			"last_day": 1,
			"last_hour": 1,
			"last_updated_at": 1510147200,
			"last_week": 1
		},
		"favorites": 1,
		"notes": "",
		"program_id": 9908,
		"published_at": "2016-12-14T22:35:44-02:00",
		"queryable": true,
		"recommendation_publisher": "webmedia-globoplay-intermediate",
		"scheduled_publication_in": null,
		"scheduled_unpublication_in": null,
		"status": "published",
		"subscriber_only": false,
		"tags": ["Rede Globo"],
		"title": "Lorde of the Ends - Spoiler (Clipe Oficial)",
		"unpublished_at": "2016-12-14T21:12:14-02:00",
		"updated_at": "2017-11-07T15:58:28-02:00",
		"updated_by": "tvg_amanda.impellizieri",
		"url_for_consumption": "https://globoplay.globo.com/v/5514599/",
		"videos_ids": [],
		"countries": []
	}]
}
